<?xml version="1.0" encoding="UTF-8"?>
<kml xmlns="http://www.opengis.net/kml/2.2" xmlns:gx="http://www.google.com/kml/ext/2.2" xmlns:kml="http://www.opengis.net/kml/2.2" xmlns:atom="http://www.w3.org/2005/Atom">
<Document>
	<name>NECA_nnj.kml</name>
	<open>1</open>
	<Style id="sn_ylw-pushpin3">
		<LabelStyle>
			<scale>0</scale>
		</LabelStyle>
		<BalloonStyle>
			<text>$[description]</text>
		</BalloonStyle>
		<LineStyle>
			<color>ff666666</color>
		</LineStyle>
		<PolyStyle>
			<color>7f00aa00</color>
		</PolyStyle>
	</Style>
	<StyleMap id="msn_ylw-pushpin">
		<Pair>
			<key>normal</key>
			<styleUrl>#sn_ylw-pushpin</styleUrl>
		</Pair>
		<Pair>
			<key>highlight</key>
			<styleUrl>#sh_ylw-pushpin</styleUrl>
		</Pair>
	</StyleMap>
	<Style id="sn_ylw-pushpin">
		<LabelStyle>
			<scale>0</scale>
		</LabelStyle>
		<BalloonStyle>
			<text>$[description]</text>
		</BalloonStyle>
		<LineStyle>
			<color>ff666666</color>
		</LineStyle>
		<PolyStyle>
			<color>7fffffff</color>
		</PolyStyle>
	</Style>
	<Style id="sh_ylw-pushpin">
		<BalloonStyle>
			<text>$[description]</text>
		</BalloonStyle>
		<LineStyle>
			<color>ff666666</color>
		</LineStyle>
		<PolyStyle>
			<color>7fffffff</color>
		</PolyStyle>
	</Style>
	<StyleMap id="msn_ylw-pushpin3">
		<Pair>
			<key>normal</key>
			<styleUrl>#sn_ylw-pushpin2</styleUrl>
		</Pair>
		<Pair>
			<key>highlight</key>
			<styleUrl>#sh_ylw-pushpin00</styleUrl>
		</Pair>
	</StyleMap>
	<Style id="sn_ylw-pushpin2">
		<LabelStyle>
			<scale>0</scale>
		</LabelStyle>
		<BalloonStyle>
			<text>$[description]</text>
		</BalloonStyle>
		<LineStyle>
			<color>ff666666</color>
		</LineStyle>
		<PolyStyle>
			<color>7f00ffff</color>
		</PolyStyle>
	</Style>
	<Style id="sh_ylw-pushpin00">
		<BalloonStyle>
			<text>$[description]</text>
		</BalloonStyle>
		<LineStyle>
			<color>ff666666</color>
		</LineStyle>
		<PolyStyle>
			<color>7f00ffff</color>
		</PolyStyle>
	</Style>
	<Style id="sn_ylw-pushpin0">
		<LabelStyle>
			<scale>0</scale>
		</LabelStyle>
		<BalloonStyle>
			<text>$[description]</text>
		</BalloonStyle>
		<LineStyle>
			<color>ff666666</color>
		</LineStyle>
		<PolyStyle>
			<color>7fff0055</color>
		</PolyStyle>
	</Style>
	<Style id="sh_ylw-pushpin000">
		<BalloonStyle>
			<text>$[description]</text>
		</BalloonStyle>
		<LineStyle>
			<color>ff666666</color>
		</LineStyle>
		<PolyStyle>
			<color>7f0000aa</color>
		</PolyStyle>
	</Style>
	<StyleMap id="msn_ylw-pushpin0">
		<Pair>
			<key>normal</key>
			<styleUrl>#sn_ylw-pushpin0</styleUrl>
		</Pair>
		<Pair>
			<key>highlight</key>
			<styleUrl>#sh_ylw-pushpin0</styleUrl>
		</Pair>
	</StyleMap>
	<Style id="sh_ylw-pushpin0">
		<BalloonStyle>
			<text>$[description]</text>
		</BalloonStyle>
		<LineStyle>
			<color>ff666666</color>
		</LineStyle>
		<PolyStyle>
			<color>7fff0055</color>
		</PolyStyle>
	</Style>
	<StyleMap id="msn_ylw-pushpin1">
		<Pair>
			<key>normal</key>
			<styleUrl>#sn_ylw-pushpin1</styleUrl>
		</Pair>
		<Pair>
			<key>highlight</key>
			<styleUrl>#sh_ylw-pushpin000</styleUrl>
		</Pair>
	</StyleMap>
	<StyleMap id="msn_ylw-pushpin00">
		<Pair>
			<key>normal</key>
			<styleUrl>#sn_ylw-pushpin3</styleUrl>
		</Pair>
		<Pair>
			<key>highlight</key>
			<styleUrl>#sh_ylw-pushpin1</styleUrl>
		</Pair>
	</StyleMap>
	<Style id="sh_ylw-pushpin1">
		<BalloonStyle>
			<text>$[description]</text>
		</BalloonStyle>
		<LineStyle>
			<color>ff666666</color>
		</LineStyle>
		<PolyStyle>
			<color>7f00aa00</color>
		</PolyStyle>
	</Style>
	<Style id="sn_ylw-pushpin1">
		<LabelStyle>
			<scale>0</scale>
		</LabelStyle>
		<BalloonStyle>
			<text>$[description]</text>
		</BalloonStyle>
		<LineStyle>
			<color>ff666666</color>
		</LineStyle>
		<PolyStyle>
			<color>7f0000aa</color>
		</PolyStyle>
	</Style>
	<Placemark>
		<name>Local 400</name>
		<description>NECA NNJ - Local 400 Jursidiction</description>
		<styleUrl>#msn_ylw-pushpin1</styleUrl>
		<Polygon>
			<tessellate>1</tessellate>
			<outerBoundaryIs>
				<LinearRing>
					<coordinates>
						-74.38997514613634,39.77279371268629,0 -74.38966010194724,39.59536646998613,0 -74.40250440021352,39.57011415786058,0 -74.41803322344732,39.56940708044132,0 -74.41713168422859,39.55945629885063,0 -74.42314351673225,39.55280405927685,0 -74.28418054757914,39.49137100654495,0 -74.20130465252436,39.59231573541405,0 -74.08856731717437,39.75078889971637,0 -74.07467378451528,39.84692888625607,0 -74.06569578627921,39.91067895388098,0 -74.0610559401521,39.95113376781372,0 -74.04891802256776,40.0087656301007,0 -74.0276672482578,40.08528567610243,0 -74.01089903395591,40.14468336187952,0 -73.97774752951963,40.25704486931792,0 -73.96785450881785,40.29224142372334,0 -73.9647255160554,40.38027195771452,0 -73.97092544140133,40.43003759636142,0 -73.99855532699399,40.4829194018293,0 -74.02929850004145,40.47762876318377,0 -74.00298948521547,40.41150494311901,0 -74.04392481560367,40.42169201732975,0 -74.08150735559551,40.43841868187203,0 -74.13470969790699,40.45733005415103,0 -74.14570335865619,40.45115933110048,0 -74.15727245851898,40.44850799957344,0 -74.17924617753033,40.4581762327253,0 -74.1861824828667,40.45332926240515,0 -74.19484884125787,40.4423174991854,0 -74.20582789539677,40.43746497991652,0 -74.20756734995469,40.44670915440675,0 -74.22202373838107,40.45109392271599,0 -74.22837572876361,40.44492230984822,0 -74.23415616482075,40.44447151867505,0 -74.24801158804364,40.43122983721749,0 -74.24878001225287,40.40653150660529,0 -74.39468523273231,40.28645302933613,0 -74.3929156873393,40.2789772436596,0 -74.46075513153245,40.25023609127086,0 -74.48672340746651,40.25324412412665,0 -74.48145017820936,40.24314272698656,0 -74.54355266370538,40.21656891510823,0 -74.5486779857555,40.20731776219884,0 -74.55725813812516,40.19805337106958,0 -74.56238794911596,40.18968052637717,0 -74.57042468999167,40.18613245161908,0 -74.57445394020836,40.18611686679677,0 -74.58657720552873,40.18298753573959,0 -74.59060973757246,40.18033126081374,0 -74.59523282428181,40.17943113390159,0 -74.59874614228184,40.18557335238035,0 -74.6131595036519,40.18188218573084,0 -74.48595699663389,39.95130939080266,0 -74.4264301658699,39.84049852388315,0 -74.38997514613634,39.77279371268629,0 
					</coordinates>
				</LinearRing>
			</outerBoundaryIs>
		</Polygon>
	</Placemark>
	<Placemark>
		<name>Local 102</name>
		<styleUrl>#msn_ylw-pushpin00</styleUrl>
		<Polygon>
			<tessellate>1</tessellate>
			<outerBoundaryIs>
				<LinearRing>
					<coordinates>
						-74.21348122922234,41.13391848017046,0 -74.4310426866078,41.2355791646271,0 -74.69547469338777,41.3591205960882,0 -74.7294933060503,41.34600740806397,0 -74.75255148507016,41.34657219599764,0 -74.76109390882962,41.34030912495308,0 -74.76890441040378,41.32747931543234,0 -74.78664503374911,41.32376322645842,0 -74.7950617487511,41.32013666157538,0 -74.79380677112326,41.31077741435342,0 -74.81220530793881,41.29882045820572,0 -74.83261088085068,41.28480898115611,0 -75.10844808535761,41.31063653136569,0 -75.15607079620098,41.15030202749148,0 -75.16813889754606,41.14017754716379,0 -75.17650417627918,41.07441109422766,0 -75.32928960178495,41.13455759779899,0 -75.34441346923623,41.14606193108614,0 -75.3519510071358,41.14090417717626,0 -75.34519994052857,41.13496314041689,0 -75.48248027934238,41.01519787856902,0 -75.47225442556395,41.00308188351063,0 -75.57345884958856,40.95079151746806,0 -75.47423189002578,40.81547837603139,0 -75.48782712962864,40.80173894359674,0 -75.48446187933783,40.77724611354626,0 -75.46484947226951,40.76880354278291,0 -75.43024367835314,40.76415928383644,0 -75.42082513169942,40.7532551136982,0 -75.39963541448614,40.74814040642851,0 -75.39817049242573,40.73472870314061,0 -75.39456317041129,40.71548519298232,0 -75.39266031808585,40.69826625546744,0 -75.38613519459437,40.67365671726546,0 -75.38890733819471,40.66078349279236,0 -75.41530115896586,40.64866623046419,0 -75.40576829791303,40.63091458880357,0 -75.40064198662739,40.626270635429,0 -75.38895593560211,40.62712812636706,0 -75.38514473840202,40.6215225301451,0 -75.38398970525337,40.61203503490241,0 -75.35255544607571,40.61009105273389,0 -75.34151075535451,40.60349170832782,0 -75.34235290708553,40.58337377128567,0 -75.33959077474327,40.5720552709565,0 -75.3393045857421,40.56330552527032,0 -75.33662761212128,40.55422944057011,0 -75.31380263294395,40.54655970124047,0 -75.30074467033387,40.53974379709989,0 -75.29498656239483,40.5116279322793,0 -75.27138048917161,40.46034863169544,0 -75.25658087181114,40.44302394322038,0 -75.24426306507847,40.38909958126643,0 -75.2245195521774,40.37496895817141,0 -75.10613685336915,40.31496767464707,0 -75.07898291261354,40.33459318654823,0 -75.08229636442162,40.33824249807486,0 -75.07448160100327,40.34270381443793,0 -75.07284752462839,40.34006181856053,0 -75.03497080670441,40.37491701827989,0 -75.0246247077898,40.36778260458635,0 -75.01007571447536,40.3829325122194,0 -75.01899991516208,40.38951985356108,0 -74.99562900568904,40.40976432348487,0 -74.97620384512669,40.40789048177656,0 -74.95670305619203,40.44723116997128,0 -74.85556374208471,40.51169780746677,0 -74.84661187944606,40.42389503805214,0 -74.83792380291177,40.403015766797,0 -74.82207693068332,40.38294783714767,0 -74.8026449865867,40.38468553271947,0 -74.80836870448356,40.41665268482592,0 -74.74779282357912,40.4245928087171,0 -74.75338165096652,40.43321758856857,0 -74.72957741250856,40.43741750319725,0 -74.71302696435906,40.41871968038564,0 -74.69174624488605,40.4194806421834,0 -74.67476868022212,40.45948731657272,0 -74.66218841408083,40.44778352307936,0 -74.66331978930435,40.44313061716707,0 -74.65553918866188,40.42200630934462,0 -74.65078790787099,40.39167431832711,0 -74.64034147188841,40.38902578501402,0 -74.62321774914982,40.38458478949934,0 -74.62092102189843,40.38293573033078,0 -74.61845631325127,40.38020954421246,0 -74.62518329283758,40.41023650310223,0 -74.62246630372457,40.41384239526458,0 -74.61868929200647,40.4264448852495,0 -74.60951153729803,40.44660158565117,0 -74.59253572220298,40.45735629468121,0 -74.57587731830556,40.47039594580434,0 -74.58421914741085,40.50255994408798,0 -74.56953172035591,40.50220467020095,0 -74.54366219363942,40.49609902934586,0 -74.53941184271854,40.49800187900914,0 -74.53577023852368,40.50773210204748,0 -74.5368603260621,40.51803935204936,0 -74.51263890283585,40.54507444505455,0 -74.54079632489113,40.55979926162656,0 -74.53994472023949,40.56981782335883,0 -74.48617820411189,40.56123052096194,0 -74.46020539562052,40.55688505047905,0 -74.44443096471198,40.55690591829517,0 -74.42668526722976,40.55835341790281,0 -74.42411294845714,40.5575919959463,0 -74.41215366579991,40.58146416603013,0 -74.39587080947491,40.58338549765377,0 -74.37578593638767,40.58100276938909,0 -74.36719958529146,40.58338072392495,0 -74.35214811176732,40.60408234205031,0 -74.30348684146941,40.60883621877757,0 -74.30524976336794,40.60062778371118,0 -74.29163768046045,40.59215022781132,0 -74.26014701832158,40.59746752405608,0 -74.25830753777954,40.60151393722039,0 -74.25611851907529,40.60231506525781,0 -74.25321419046014,40.60095415995694,0 -74.24886485155959,40.60026721983854,0 -74.24509490441591,40.59995815331923,0 -74.24178031433779,40.59986178839915,0 -74.23904453733211,40.60069096156214,0 -74.23734081082111,40.60266885872607,0 -74.23156469646045,40.59874434347143,0 -74.21831617961608,40.60132240800055,0 -74.21579770892593,40.60427997358309,0 -74.21352423013917,40.60262532886694,0 -74.21271011660457,40.60084232639679,0 -74.21180982701075,40.59851970707935,0 -74.20350844960902,40.59298934478475,0 -74.19976106246648,40.59923204698231,0 -74.20357782086111,40.60533504673807,0 -74.20215630257407,40.61839874331226,0 -74.20260640920246,40.63020404506548,0 -74.19458615433729,40.63836693374952,0 -74.18902833594221,40.64377214195395,0 -74.1855369107962,40.64591026561865,0 -74.18135091739933,40.64646593434382,0 -74.16138934364859,40.64438087052222,0 -74.15516790783214,40.65188650899071,0 -74.14920856263343,40.65954398206738,0 -74.14352535991937,40.66605989852477,0 -74.13675384050953,40.67447900983301,0 -74.13876628345786,40.67393569579519,0 -74.16056140600028,40.68703614049326,0 -74.16081054484282,40.68880246189074,0 -74.16277084052364,40.68976524777011,0 -74.16458173747519,40.69028514322249,0 -74.16791989065466,40.68976071526896,0 -74.16989938586426,40.68849935324014,0 -74.18207115343772,40.68834127802566,0 -74.1873642497082,40.68767449051364,0 -74.20152276820805,40.68656448877632,0 -74.20973495596917,40.69068688000156,0 -74.21392588005919,40.70103401823081,0 -74.22310345842313,40.70722513756451,0 -74.24170030435842,40.71048792736678,0 -74.25688088037113,40.71377260421876,0 -74.28566227667693,40.72150360995887,0 -74.29362156922907,40.71770205867236,0 -74.3001866800677,40.71282774021048,0 -74.31427847680496,40.71779592006779,0 -74.32543839643468,40.71768707633224,0 -74.36123077673238,40.73510235020389,0 -74.36955605712042,40.73966361552149,0 -74.36731123800888,40.74865517475433,0 -74.35715742507578,40.7548673945906,0 -74.3662810785917,40.75747100827927,0 -74.37395792359344,40.75769037186073,0 -74.37710781551535,40.76142882276323,0 -74.37012649488734,40.7670275493629,0 -74.37180107679176,40.77416537151222,0 -74.36736948526958,40.78060906802249,0 -74.36679752765426,40.78859558649376,0 -74.36400456738809,40.79782994708389,0 -74.36021457086615,40.79918872548029,0 -74.3519738958362,40.80662532356983,0 -74.34996052972177,40.81130901797079,0 -74.33972557130822,40.81250916164323,0 -74.33238907954977,40.82179783023348,0 -74.33544902030877,40.82699149668905,0 -74.3296086893837,40.82975217923224,0 -74.32938341949583,40.836845285303,0 -74.32659366262782,40.84279457152023,0 -74.32842346503496,40.84859035184943,0 -74.32617908571652,40.85684924106666,0 -74.31574825831119,40.85749881983642,0 -74.31217646112762,40.8612880056774,0 -74.31901472392005,40.86332082210174,0 -74.33604796468799,40.86702548060029,0 -74.33943506855144,40.87821827422769,0 -74.33835350144538,40.883819306864,0 -74.33842015683969,40.89532286317513,0 -74.33538741597941,40.90436914503992,0 -74.32965829863929,40.9081308234108,0 -74.32457504607095,40.90880161023373,0 -74.31965015789297,40.90744104718585,0 -74.31824167023831,40.904729582605,0 -74.30585881908573,40.90544902632635,0 -74.30437442456405,40.90657049649516,0 -74.30327646232749,40.90713786349145,0 -74.30250666008972,40.90652387504002,0 -74.30336583565394,40.9053566778835,0 -74.30352065593921,40.90452770820428,0 -74.30259424450742,40.90425347358565,0 -74.30079684717836,40.90457364244854,0 -74.29841250416851,40.9054499900688,0 -74.29585891643731,40.90591580204412,0 -74.29293542069152,40.9058228935993,0 -74.29174951327092,40.90545073946706,0 -74.29222335581883,40.9034811635133,0 -74.29146599794592,40.90191620177009,0 -74.29255830554725,40.90110875798914,0 -74.29110007668925,40.89969492272117,0 -74.28844582319553,40.89939407456031,0 -74.28638577411526,40.90086060899889,0 -74.2850545050464,40.9014293827759,0 -74.28278749819302,40.90129688144292,0 -74.28177050736581,40.90051072536141,0 -74.28193808826565,40.8996476804258,0 -74.28402607517428,40.89956298249469,0 -74.28590328597836,40.89913692208838,0 -74.2869573771014,40.89858627927607,0 -74.28669298184563,40.89791356908327,0 -74.28548460767709,40.89770389840566,0 -74.2846822973866,40.89799599552564,0 -74.28382653839127,40.89812124172946,0 -74.28377878323302,40.89728676149925,0 -74.28447683446352,40.89576944171596,0 -74.28388472517072,40.89488190204615,0 -74.28209941441655,40.89576736818434,0 -74.2810194943623,40.89749249834769,0 -74.27870782781973,40.89757413188634,0 -74.27632001468962,40.89715686757812,0 -74.27372041903846,40.89707203186923,0 -74.27162343004372,40.89698762513094,0 -74.26891311050672,40.89612214096007,0 -74.26667386858701,40.89454444745444,0 -74.2655552859266,40.89230330107549,0 -74.26479132648409,40.88790083516621,0 -74.26423209258527,40.88686041360661,0 -74.25941371343095,40.88367404160387,0 -74.2574754815504,40.88298043973714,0 -74.25457740972874,40.88297686937705,0 -74.25293942221393,40.88150846778746,0 -74.24991595253138,40.88115217571426,0 -74.24734313674944,40.88107044793052,0 -74.24178920071556,40.88028664223594,0 -74.23804799598376,40.87913336651832,0 -74.23410620234185,40.87725630124534,0 -74.21687342011119,40.86749278584607,0 -74.20209957329178,40.85965272087972,0 -74.20124387792693,40.8617798416012,0 -74.19653223510269,40.85971775510009,0 -74.19764303316056,40.85743201461484,0 -74.19095530753322,40.85347952973731,0 -74.180757821185,40.84770655746339,0 -74.16652565621513,40.83991923240198,0 -74.1459655569118,40.82879371889077,0 -74.13001955878025,40.81999867073168,0 -74.12661724940277,40.82086008724685,0 -74.1243950999245,40.822183275288,0 -74.12390648366792,40.82330951790475,0 -74.12260176518126,40.82633896565183,0 -74.12107748580584,40.83099577611146,0 -74.12118787092084,40.83260584914234,0 -74.12237305534451,40.83526148122414,0 -74.12397651022505,40.83859883513296,0 -74.12409173348382,40.83987492831994,0 -74.12296111256282,40.84160284225687,0 -74.12199161102544,40.8432470392036,0 -74.12140323069819,40.84730584041109,0 -74.12098143863783,40.84794813735963,0 -74.12029078410382,40.84922038204997,0 -74.11957856476502,40.85074310632889,0 -74.11928941324233,40.85169658194894,0 -74.11947710507367,40.85359412217129,0 -74.11968926126134,40.85439412444608,0 -74.12005288317704,40.85505383637705,0 -74.1198621288595,40.85629973473914,0 -74.11941940474586,40.85777978362736,0 -74.11881995065373,40.85934238724195,0 -74.1187231205348,40.85938265997043,0 -74.11600148530545,40.85988679184941,0 -74.11391018764412,40.85958169136587,0 -74.11261915839864,40.85857262211793,0 -74.11231785244421,40.85704308899623,0 -74.11170949775529,40.85588709790041,0 -74.11104150092513,40.8554694306043,0 -74.11017007675252,40.85527028032323,0 -74.10944605412567,40.85541596273576,0 -74.10862229549798,40.85596724024686,0 -74.10791175126727,40.85669307257506,0 -74.10728434179096,40.85721136046294,0 -74.10678264098159,40.85930046524877,0 -74.10707951672895,40.86268664781736,0 -74.10768770024306,40.86358891485209,0 -74.11019487889325,40.86480197975703,0 -74.11098583490481,40.86549291956776,0 -74.11228190625424,40.86888096186344,0 -74.11387365791769,40.87047515738489,0 -74.11478202862395,40.87409285822314,0 -74.11543944581395,40.87475483862401,0 -74.11848758862483,40.8774241970734,0 -74.11890499211515,40.87761740566735,0 -74.11918646115014,40.87795819186101,0 -74.11948231792076,40.87823423105811,0 -74.11993760479112,40.87920658852293,0 -74.12029790066922,40.87981701646607,0 -74.12048974666007,40.88038771723576,0 -74.12656690125004,40.88359396079576,0 -74.13018908754729,40.88601045897265,0 -74.13018071243312,40.88689144669475,0 -74.1297944572017,40.88992995347987,0 -74.12902257051715,40.89382075948883,0 -74.12943677502371,40.89432363312627,0 -74.13101375858675,40.89541289764913,0 -74.13379674549299,40.89931000539114,0 -74.13359720641375,40.90190482920103,0 -74.13341816589404,40.90215878542271,0 -74.13336795220943,40.90243167216239,0 -74.132359263271,40.90415091309337,0 -74.13176818722577,40.90745484390145,0 -74.13278923352573,40.91085005463472,0 -74.13327623971637,40.91180565363062,0 -74.1333007627635,40.91308308475637,0 -74.13187353425099,40.9155809822067,0 -74.13013016231551,40.91829968791946,0 -74.12970521210255,40.91936308706872,0 -74.12959965530672,40.92006201845382,0 -74.13006158917108,40.92105893348258,0 -74.13154884773694,40.92205507806355,0 -74.13392212173356,40.92277550537563,0 -74.13828204433386,40.92292944181587,0 -74.13952764814745,40.92350907669911,0 -74.14128246418179,40.92537334965613,0 -74.14143014121643,40.92576320946122,0 -74.14197004394377,40.9270994708339,0 -74.14228853662168,40.92975357652843,0 -74.14193483950754,40.93034630237671,0 -74.14087826174176,40.93129824265656,0 -74.14001424332524,40.93226936417558,0 -74.13964500329242,40.93321411774527,0 -74.13946098502987,40.93347883615638,0 -74.13935390393623,40.93404075022325,0 -74.1394916518978,40.93430547956093,0 -74.14026562734125,40.93568751466604,0 -74.14319436961212,40.93980818660939,0 -74.14370216986353,40.94041281242017,0 -74.14539448419431,40.94130586133033,0 -74.14806417587187,40.94158785322514,0 -74.14817297125347,40.94207179461651,0 -74.14795051315466,40.94338646263557,0 -74.14766985810059,40.94461379256391,0 -74.14713832944317,40.94625345901377,0 -74.14643755406048,40.94841651626832,0 -74.14596083475269,40.95022197451171,0 -74.14571120715064,40.95145242760685,0 -74.14499598777019,40.95401622866736,0 -74.14477164773724,40.95486499236466,0 -74.14434580314244,40.95633700198727,0 -74.14404985308963,40.95709295362114,0 -74.14325887544135,40.95926263814362,0 -74.14273675832857,40.96063798818875,0 -74.14162742367503,40.96358090337574,0 -74.14124883224976,40.96515715182046,0 -74.14104750388185,40.96635500404804,0 -74.17012938656851,40.98324882421255,0 -74.17038899144492,40.97700854366951,0 -74.22513297859517,40.98161938649347,0 -74.24881696587295,40.99224597562635,0 -74.26403243167459,41.01140920136606,0 -74.27320364377724,41.01828991239026,0 -74.24134113358912,41.08023877576013,0 -74.21348122922234,41.13391848017046,0 
					</coordinates>
				</LinearRing>
			</outerBoundaryIs>
		</Polygon>
	</Placemark>
	<Placemark>
		<name>Local 456</name>
		<styleUrl>#msn_ylw-pushpin3</styleUrl>
		<Polygon>
			<tessellate>1</tessellate>
			<outerBoundaryIs>
				<LinearRing>
					<coordinates>
						-74.21759150422986,40.45695442887967,0 -74.2679145778398,40.48686987960939,0 -74.25908529902029,40.49959356107032,0 -74.25855936194908,40.50743484790179,0 -74.25492873859128,40.5152471056192,0 -74.24608503181186,40.52093454296743,0 -74.25065339231115,40.54184603111416,0 -74.24720395716422,40.54909721422111,0 -74.23164366038733,40.55828478766473,0 -74.21844997946512,40.55712125370793,0 -74.21506221283184,40.56028875892095,0 -74.20904126793869,40.57633290480287,0 -74.20653124882709,40.58886028224782,0 -74.20361426175192,40.59284349174135,0 -74.21173951109677,40.5984519236422,0 -74.2154491799688,40.60406263626867,0 -74.21831580175855,40.60126676210938,0 -74.23152508179645,40.59868022824997,0 -74.2371331154241,40.60276495846965,0 -74.2425674887934,40.59960703115967,0 -74.25844714868508,40.60212805139266,0 -74.26018904054401,40.59727197702636,0 -74.27428988363573,40.59510775435321,0 -74.29185422509183,40.59213799284108,0 -74.30525743725836,40.60054455933993,0 -74.30354533831283,40.60887131874297,0 -74.35214027425116,40.60407882694317,0 -74.36718573908041,40.58335525371397,0 -74.37574538431521,40.58102679144361,0 -74.39586794037246,40.58341186793791,0 -74.4121323122819,40.58153958372731,0 -74.42432085060915,40.55765238677486,0 -74.44045341439843,40.55678192661836,0 -74.45260495097702,40.55666595418387,0 -74.46162556249227,40.55721640570607,0 -74.54006429004407,40.56988921540818,0 -74.54059335568586,40.55943699608318,0 -74.51235448825341,40.54490551202684,0 -74.5216289963079,40.5361048399329,0 -74.53694928833843,40.51829951620269,0 -74.5357231856604,40.5077015721961,0 -74.53927337438387,40.49781292195003,0 -74.54360536974573,40.49616498843292,0 -74.56970109849978,40.5022917192184,0 -74.58462624144094,40.50257739069491,0 -74.57843285192338,40.4800943840045,0 -74.57543323827785,40.47063819551731,0 -74.58971587966211,40.45933193650598,0 -74.60944477547385,40.44652050866265,0 -74.61863146717927,40.4266335173084,0 -74.62254488113642,40.41386429152457,0 -74.62503862463403,40.40976734549468,0 -74.62151429179798,40.38746179504089,0 -74.61757079350915,40.37798783287847,0 -74.62693586333788,40.35280883773253,0 -74.62292995950925,40.34810824127121,0 -74.61959353697644,40.33198247883694,0 -74.58812807722842,40.31840187308129,0 -74.56472841496033,40.30684578046706,0 -74.5349208740447,40.29267562250043,0 -74.52023340108207,40.27474404586193,0 -74.50458299178625,40.26310106402114,0 -74.49218500007977,40.26054913901439,0 -74.4842363866601,40.26582873863562,0 -74.48661065570437,40.25332897931821,0 -74.46076735771783,40.25022199372648,0 -74.39287818693398,40.27896856364383,0 -74.39471555141935,40.28652286792818,0 -74.24860062375861,40.40652653949886,0 -74.24880529930091,40.42966441085442,0 -74.23706753637413,40.44360216864684,0 -74.22781001124737,40.44283128067733,0 -74.2220047750108,40.45038871886438,0 -74.21759150422986,40.45695442887967,0 
					</coordinates>
				</LinearRing>
			</outerBoundaryIs>
		</Polygon>
	</Placemark>
	<Placemark>
		<name>Local 164</name>
		<styleUrl>#msn_ylw-pushpin0</styleUrl>
		<Polygon>
			<tessellate>1</tessellate>
			<outerBoundaryIs>
				<LinearRing>
					<coordinates>
						-74.18232390777193,40.68825795316517,0 -74.17000508240631,40.68875128720134,0 -74.16777628164576,40.6898894134548,0 -74.16446142682645,40.69013639672912,0 -74.16263138757731,40.68981160673245,0 -74.16075752895914,40.68883835283626,0 -74.16039197621829,40.68714677930851,0 -74.15208343760675,40.68202039986628,0 -74.143284042324,40.67667021443477,0 -74.13875555835466,40.67398476799222,0 -74.1372317509942,40.67428062292149,0 -74.13691408035272,40.67418224172382,0 -74.16121799929744,40.64426665625133,0 -74.14278601639842,40.642041454301,0 -74.13333270020941,40.64353776440629,0 -74.12490977652232,40.64391678272194,0 -74.10990789694893,40.64807838446255,0 -74.09383726909459,40.64796025384712,0 -74.08674350558675,40.65141358194008,0 -74.0557714219281,40.65186759494334,0 -74.02608972155353,40.70066702072615,0 -74.02083921433156,40.72806036113526,0 -74.01365737184956,40.75680579721675,0 -73.98496314608397,40.79750210437511,0 -73.96312897738545,40.82656844476958,0 -73.95203011826253,40.85198016242732,0 -73.93344269300791,40.88216908468377,0 -73.92949428322186,40.88831802674936,0 -73.91950498822133,40.91402564100939,0 -73.90810524065066,40.94859483072325,0 -73.90011788436809,40.97064516010479,0 -73.89621584871517,40.98241881856474,0 -73.89374258175305,40.99723671928661,0 -73.90461881625771,40.99768649357228,0 -74.03738768657487,41.05765540420178,0 -74.21323878381567,41.134205380621,0 -74.24178521807045,41.07857705505707,0 -74.27340420774152,41.0185267795502,0 -74.26402990164162,41.01194108490552,0 -74.24864908714797,40.99228162953017,0 -74.22400488919853,40.98090623588042,0 -74.17042629901685,40.9769677198171,0 -74.17016308568223,40.98338441437061,0 -74.14104592541466,40.9663790017941,0 -74.14158880502249,40.96370541682433,0 -74.14400743994125,40.95696134877268,0 -74.14517090299687,40.95321459218218,0 -74.14636940318462,40.94887451019667,0 -74.14752935465226,40.94487306119977,0 -74.14809530479349,40.94165106827524,0 -74.14547219040799,40.94129568006111,0 -74.14399678453701,40.94046177563574,0 -74.13979351924132,40.94410959697051,0 -74.13403435442385,40.94476488472495,0 -74.12864864071901,40.94281562885092,0 -74.12521514847801,40.93763829420785,0 -74.12275658188635,40.93324175255575,0 -74.11722033147368,40.92772839326199,0 -74.09935732565732,40.91541670871614,0 -74.07553888983321,40.90262158585887,0 -74.06971057744254,40.88619618571235,0 -74.07887974500471,40.86923255258118,0 -74.10802677512106,40.85083828334609,0 -74.11508112332207,40.85106387477778,0 -74.11992694692864,40.85587365224624,0 -74.12007463185259,40.85505736161849,0 -74.11966441326904,40.85437766876677,0 -74.11949398077948,40.85357388982175,0 -74.1192856478657,40.8516935327382,0 -74.11959683595522,40.85068641688076,0 -74.12025815067912,40.8493185529076,0 -74.12101142471218,40.84788333507181,0 -74.1214768609965,40.84713219370926,0 -74.12366935050405,40.84040300826239,0 -74.12413410898705,40.83951686035248,0 -74.12330440863424,40.83728706247486,0 -74.12123750082307,40.83271991495528,0 -74.12162113580372,40.82959518824173,0 -74.12272740789275,40.82612568129193,0 -74.12402550794914,40.82287486765479,0 -74.12526422963344,40.82151295844671,0 -74.12995202282158,40.82003532598151,0 -74.14701637290538,40.82943579728026,0 -74.17522793321427,40.84470361327362,0 -74.19762177396638,40.85718436167933,0 -74.19663212915924,40.85961840349112,0 -74.20142701267839,40.86177203431259,0 -74.20209806958759,40.8597689366657,0 -74.22034100146239,40.86942005799629,0 -74.2300257865555,40.87457700787806,0 -74.234274901082,40.87737921688947,0 -74.24028470550161,40.88013748901523,0 -74.25320832179148,40.88164888852071,0 -74.25443844506141,40.88299702208817,0 -74.25699367652041,40.88294440013643,0 -74.26036949869906,40.88391412540803,0 -74.26424380357319,40.88668183846802,0 -74.26512573530563,40.88893151162943,0 -74.26577617325974,40.89327552833557,0 -74.26806608985646,40.89553544632467,0 -74.27138741897225,40.89695792622188,0 -74.27532191383959,40.89701226758675,0 -74.2766974856208,40.89718278341153,0 -74.27922060345111,40.89775347328342,0 -74.28053162646692,40.89780975094288,0 -74.28185872642045,40.89586766566355,0 -74.28327426285541,40.8950157986252,0 -74.28442100368271,40.89535500955631,0 -74.284058987366,40.8971771226798,0 -74.28431260373164,40.89815085997483,0 -74.28571999525009,40.89757628418114,0 -74.28723032312438,40.89820574230163,0 -74.28654048137973,40.89918464157267,0 -74.28418351173994,40.89959099053487,0 -74.28242299897602,40.89965047402319,0 -74.28197575037673,40.89982439780705,0 -74.28200341665465,40.90086817688434,0 -74.28345628285558,40.90127385550073,0 -74.28543910140738,40.90132993814763,0 -74.28685676679294,40.90068882976753,0 -74.28850346276001,40.89958679570102,0 -74.29047950512678,40.8995848450989,0 -74.29228949134347,40.90050900453529,0 -74.29220161924833,40.90120608693306,0 -74.29130981226197,40.90167297004522,0 -74.29187899032111,40.90254843593149,0 -74.29215151255528,40.9036039378726,0 -74.29183972478572,40.90436997648966,0 -74.2917400756275,40.90555309997833,0 -74.29314313310269,40.90584779735669,0 -74.29499732081125,40.90584511946945,0 -74.29685103011596,40.90584242769654,0 -74.30152036429995,40.9043568744269,0 -74.30336730314832,40.90459024383559,0 -74.30351943017458,40.90559541356925,0 -74.30263312807102,40.90648758722963,0 -74.30330378661031,40.90726145141935,0 -74.30456174379907,40.90648463826808,0 -74.30573841189802,40.90541442799733,0 -74.3181584161827,40.90459688087235,0 -74.31985266469361,40.90746110191389,0 -74.32464842310006,40.90866705355072,0 -74.32961338364524,40.90807929190527,0 -74.3354007797484,40.904337706424,0 -74.33835722988071,40.89511487157589,0 -74.33829599509303,40.88381917984607,0 -74.33940097712764,40.87827857157944,0 -74.33605497680468,40.86708604336059,0 -74.32318827974055,40.8645367812966,0 -74.31215794251686,40.86153024838725,0 -74.31589990991672,40.85755682313518,0 -74.32632089327134,40.85688375454267,0 -74.32827424261285,40.84842839609829,0 -74.32666151019825,40.84262828972647,0 -74.32924470543257,40.83749213416012,0 -74.32960564145591,40.82978027260869,0 -74.3356490384013,40.82715672103318,0 -74.33200970289506,40.82167553354562,0 -74.33279439388522,40.82135121978553,0 -74.3395065176128,40.81244392473563,0 -74.35006720377484,40.81142758363571,0 -74.35150772831277,40.80723856211001,0 -74.36001513067428,40.79944114815263,0 -74.36387343424825,40.79802759016078,0 -74.36685493377684,40.78826218369871,0 -74.36737367285514,40.78065171121106,0 -74.37179109561261,40.77420637675913,0 -74.37023518564314,40.76702868568889,0 -74.37705979123368,40.7615514877001,0 -74.37391669252013,40.75773875200744,0 -74.36639752127047,40.75764133166932,0 -74.35690503806283,40.75475923390859,0 -74.36727918344235,40.74878991982605,0 -74.36852943323224,40.74377323917182,0 -74.36970201825911,40.73951838754517,0 -74.34013577603092,40.72437591814993,0 -74.32524296770365,40.71760943795767,0 -74.31449797558089,40.71800561902683,0 -74.30018456689743,40.71278420152657,0 -74.29361290551533,40.71777240716958,0 -74.2859210848882,40.7215770745051,0 -74.24984534351957,40.71199201209979,0 -74.22341691570266,40.7073175874528,0 -74.21382730990568,40.70095111401691,0 -74.20978606972641,40.69083272015569,0 -74.20160050314244,40.68679901464864,0 -74.18232390777193,40.68825795316517,0 
					</coordinates>
				</LinearRing>
			</outerBoundaryIs>
		</Polygon>
	</Placemark>
	<Placemark>
		<name>Combined 102 164</name>
		<styleUrl>#msn_ylw-pushpin</styleUrl>
		<Polygon>
			<tessellate>1</tessellate>
			<outerBoundaryIs>
				<LinearRing>
					<coordinates>
						-74.14403744746809,40.94058717308701,0 -74.1431712288001,40.93980040742775,0 -74.14053096828822,40.93607788974406,0 -74.13939380642277,40.93411660069037,0 -74.13945338536364,40.93333710928318,0 -74.13973119205284,40.93295351250471,0 -74.13993904692792,40.93226382703767,0 -74.14100789325867,40.9311353032915,0 -74.14190062215175,40.93030855584031,0 -74.14222538555691,40.92973320916501,0 -74.14194533907023,40.92707635383697,0 -74.14131150236749,40.92542130259295,0 -74.13945416429242,40.92342941105569,0 -74.13823784567362,40.92292951615518,0 -74.13381371927578,40.92277965925419,0 -74.13155787846053,40.92202387474438,0 -74.13003298453707,40.92102401929311,0 -74.12957334335057,40.92005533012687,0 -74.12974824489446,40.91920208031182,0 -74.13041286189966,40.91779086624878,0 -74.13198989028895,40.91540673032638,0 -74.13328891655419,40.91303481404821,0 -74.13325208119242,40.91175240457123,0 -74.13280854343223,40.91092873244992,0 -74.13179296426451,40.90740668382455,0 -74.13232976226375,40.90413538364997,0 -74.13329751116912,40.90241254914616,0 -74.13363341473809,40.90179848584395,0 -74.13377809250736,40.89927101395432,0 -74.13102750224039,40.89538833501118,0 -74.12937646213126,40.8942944468281,0 -74.12896663586587,40.89372578039353,0 -74.12977432968972,40.88997870393891,0 -74.13017772066219,40.88703684207894,0 -74.13024475680635,40.88603417025959,0 -74.12663546652227,40.88359595982401,0 -74.1231758317055,40.88179701712142,0 -74.12048794863472,40.88037669185025,0 -74.12027969838452,40.87974761970691,0 -74.11974874729528,40.87882864408701,0 -74.11938796291015,40.87814244549391,0 -74.11882283730449,40.87755934253136,0 -74.11845631946289,40.87747395173392,0 -74.11478393465862,40.87408343103998,0 -74.11388034753439,40.87052206640995,0 -74.11224845999465,40.8688516107385,0 -74.11097480143295,40.86545334718807,0 -74.11015827184487,40.86479660344934,0 -74.10773570825104,40.86359148732247,0 -74.10710362579279,40.86263752556715,0 -74.10690832316318,40.86036951514986,0 -74.10680215628617,40.85929138722464,0 -74.10726859317968,40.85719392234063,0 -74.10785785778218,40.85676655614907,0 -74.10885136745812,40.85578906454197,0 -74.10944524965791,40.85542427235843,0 -74.11013360853781,40.85527590993308,0 -74.11105764978296,40.85543638426239,0 -74.11172177569137,40.85593176571268,0 -74.11225131365259,40.85691183780143,0 -74.11261715229114,40.8585868354049,0 -74.11389186366132,40.8595858480674,0 -74.11593161396868,40.85986228117251,0 -74.11876841839111,40.85938215560682,0 -74.11939940576005,40.85785064496308,0 -74.11985251585648,40.85634556566675,0 -74.11993672662806,40.85586991918677,0 -74.1180999381003,40.85406737976231,0 -74.11622886823122,40.85226289055279,0 -74.11501255109891,40.85106415093325,0 -74.11240415278013,40.85098040703699,0 -74.1102941535728,40.85089701142117,0 -74.10789188926484,40.85087896195441,0 -74.07884740050655,40.86922645119141,0 -74.0697186531132,40.88618505956102,0 -74.07555398141271,40.90262944936058,0 -74.09931292328133,40.91537360931849,0 -74.11733013047719,40.92780610142325,0 -74.12246092818546,40.93291944007187,0 -74.12495979030283,40.93756003922366,0 -74.12825833920431,40.9420783631495,0 -74.12941838247053,40.94305708925666,0 -74.13400844937749,40.94474398113052,0 -74.13979351924132,40.94410959697051,0 -74.14403744746809,40.94058717308701,0 
					</coordinates>
				</LinearRing>
			</outerBoundaryIs>
		</Polygon>
	</Placemark>
</Document>
</kml>
